{
  "verbose": true,
  "preset": "jest-preset-angular",
  "setupFilesAfterEnv": [
    "./src/app/config/specJest.ts"
  ],
  "globals": {
    "ts-jest": {
      "tsConfig": "tsconfig.spec.json"
    }
  },
  "moduleNameMapper": {
    "^(.*)/environments/(.*)$": "<rootDir>/src/environments/environment.staging.ts"
  },
  "testPathIgnorePatterns": [
    "src/app/app.module.ts",
    "src/app/app.server.module.ts"
  ],
  "collectCoverage": true,
  "collectCoverageFrom": [
    "src/app/**/*.{ts, js}",
    "!**/app/config/**",
    "!**/app/app.module.ts",
    "!**/app/app.server.module.ts"
  ],
  "coverageReporters": [
    "html",
    "lcovonly",
    "text-summary"
  ],
  "coverageDirectory": "./coverage"
}
